%YAML 1.1
%TAG !u! tag:unity3d.com,2011:
--- !u!1001 &2235771864203533952
PrefabInstance:
  m_ObjectHideFlags: 0
  serializedVersion: 2
  m_Modification:
    m_TransformParent: {fileID: 0}
    m_Modifications:
    - target: {fileID: 167106, guid: 42f9613ec0908c044b86298687d21ba2, type: 3}
      propertyPath: m_Icon
      value: 
      objectReference: {fileID: 5721338939258241955, guid: 0000000000000000d000000000000000,
        type: 0}
    - target: {fileID: 442966, guid: 42f9613ec0908c044b86298687d21ba2, type: 3}
      propertyPath: m_LocalPosition.x
      value: -101.5
      objectReference: {fileID: 0}
    - target: {fileID: 442966, guid: 42f9613ec0908c044b86298687d21ba2, type: 3}
      propertyPath: m_LocalPosition.y
      value: 43.223602
      objectReference: {fileID: 0}
    - target: {fileID: 442966, guid: 42f9613ec0908c044b86298687d21ba2, type: 3}
      propertyPath: m_LocalPosition.z
      value: 108.3
      objectReference: {fileID: 0}
    - target: {fileID: 442966, guid: 42f9613ec0908c044b86298687d21ba2, type: 3}
      propertyPath: m_LocalRotation.x
      value: 0.000000021855694
      objectReference: {fileID: 0}
    - target: {fileID: 442966, guid: 42f9613ec0908c044b86298687d21ba2, type: 3}
      propertyPath: m_LocalRotation.y
      value: 0
      objectReference: {fileID: 0}
    - target: {fileID: 442966, guid: 42f9613ec0908c044b86298687d21ba2, type: 3}
      propertyPath: m_LocalRotation.z
      value: -0
      objectReference: {fileID: 0}
    - target: {fileID: 442966, guid: 42f9613ec0908c044b86298687d21ba2, type: 3}
      propertyPath: m_LocalRotation.w
      value: 1
      objectReference: {fileID: 0}
    - target: {fileID: 442966, guid: 42f9613ec0908c044b86298687d21ba2, type: 3}
      propertyPath: m_RootOrder
      value: 0
      objectReference: {fileID: 0}
    m_RemovedComponents: []
  m_SourcePrefab: {fileID: 100100000, guid: 42f9613ec0908c044b86298687d21ba2, type: 3}
