%YAML 1.1
%TAG !u! tag:unity3d.com,2011:
--- !u!1 &8365045273974725826
GameObject:
  m_ObjectHideFlags: 0
  m_CorrespondingSourceObject: {fileID: 0}
  m_PrefabInstance: {fileID: 0}
  m_PrefabAsset: {fileID: 0}
  serializedVersion: 6
  m_Component:
  - component: {fileID: 8365045273974725825}
  m_Layer: 0
  m_Name: Pref_Cabin2_A
  m_TagString: Untagged
  m_Icon: {fileID: 5721338939258241955, guid: 0000000000000000d000000000000000, type: 0}
  m_NavMeshLayer: 0
  m_StaticEditorFlags: 0
  m_IsActive: 1
--- !u!4 &8365045273974725825
Transform:
  m_ObjectHideFlags: 0
  m_CorrespondingSourceObject: {fileID: 0}
  m_PrefabInstance: {fileID: 0}
  m_PrefabAsset: {fileID: 0}
  m_GameObject: {fileID: 8365045273974725826}
  m_LocalRotation: {x: 0, y: 0, z: 0, w: 1}
  m_LocalPosition: {x: -75.5, y: 43, z: 116}
  m_LocalScale: {x: 1, y: 1, z: 1}
  m_Children:
  - {fileID: 8365045273773838537}
  - {fileID: 8365045274621118245}
  - {fileID: 8365045274575719413}
  - {fileID: 8365045274175710489}
  - {fileID: 8365045273199182039}
  m_Father: {fileID: 0}
  m_RootOrder: 0
  m_LocalEulerAnglesHint: {x: 0, y: 0, z: 0}
--- !u!1001 &8365045273199599551
PrefabInstance:
  m_ObjectHideFlags: 0
  serializedVersion: 2
  m_Modification:
    m_TransformParent: {fileID: 8365045273974725825}
    m_Modifications:
    - target: {fileID: 144994, guid: de27278e60c8d8b42a3ae02c5da3edf8, type: 3}
      propertyPath: m_Name
      value: Cabin2_Stairs (1)
      objectReference: {fileID: 0}
    - target: {fileID: 417640, guid: de27278e60c8d8b42a3ae02c5da3edf8, type: 3}
      propertyPath: m_LocalPosition.x
      value: 3
      objectReference: {fileID: 0}
    - target: {fileID: 417640, guid: de27278e60c8d8b42a3ae02c5da3edf8, type: 3}
      propertyPath: m_LocalPosition.y
      value: 0
      objectReference: {fileID: 0}
    - target: {fileID: 417640, guid: de27278e60c8d8b42a3ae02c5da3edf8, type: 3}
      propertyPath: m_LocalPosition.z
      value: 8.5
      objectReference: {fileID: 0}
    - target: {fileID: 417640, guid: de27278e60c8d8b42a3ae02c5da3edf8, type: 3}
      propertyPath: m_LocalRotation.x
      value: 0.000000021855694
      objectReference: {fileID: 0}
    - target: {fileID: 417640, guid: de27278e60c8d8b42a3ae02c5da3edf8, type: 3}
      propertyPath: m_LocalRotation.y
      value: 0
      objectReference: {fileID: 0}
    - target: {fileID: 417640, guid: de27278e60c8d8b42a3ae02c5da3edf8, type: 3}
      propertyPath: m_LocalRotation.z
      value: 0
      objectReference: {fileID: 0}
    - target: {fileID: 417640, guid: de27278e60c8d8b42a3ae02c5da3edf8, type: 3}
      propertyPath: m_LocalRotation.w
      value: 1
      objectReference: {fileID: 0}
    - target: {fileID: 417640, guid: de27278e60c8d8b42a3ae02c5da3edf8, type: 3}
      propertyPath: m_RootOrder
      value: 4
      objectReference: {fileID: 0}
    m_RemovedComponents: []
  m_SourcePrefab: {fileID: 100100000, guid: de27278e60c8d8b42a3ae02c5da3edf8, type: 3}
--- !u!4 &8365045273199182039 stripped
Transform:
  m_CorrespondingSourceObject: {fileID: 417640, guid: de27278e60c8d8b42a3ae02c5da3edf8,
    type: 3}
  m_PrefabInstance: {fileID: 8365045273199599551}
  m_PrefabAsset: {fileID: 0}
--- !u!1001 &8365045273774171983
PrefabInstance:
  m_ObjectHideFlags: 0
  serializedVersion: 2
  m_Modification:
    m_TransformParent: {fileID: 8365045273974725825}
    m_Modifications:
    - target: {fileID: 472966, guid: 964f82ef1f120264f91e97059c36cc64, type: 3}
      propertyPath: m_LocalPosition.x
      value: 12
      objectReference: {fileID: 0}
    - target: {fileID: 472966, guid: 964f82ef1f120264f91e97059c36cc64, type: 3}
      propertyPath: m_LocalPosition.y
      value: 0
      objectReference: {fileID: 0}
    - target: {fileID: 472966, guid: 964f82ef1f120264f91e97059c36cc64, type: 3}
      propertyPath: m_LocalPosition.z
      value: 0
      objectReference: {fileID: 0}
    - target: {fileID: 472966, guid: 964f82ef1f120264f91e97059c36cc64, type: 3}
      propertyPath: m_LocalRotation.x
      value: 0.000000021855694
      objectReference: {fileID: 0}
    - target: {fileID: 472966, guid: 964f82ef1f120264f91e97059c36cc64, type: 3}
      propertyPath: m_LocalRotation.y
      value: 0
      objectReference: {fileID: 0}
    - target: {fileID: 472966, guid: 964f82ef1f120264f91e97059c36cc64, type: 3}
      propertyPath: m_LocalRotation.z
      value: 0
      objectReference: {fileID: 0}
    - target: {fileID: 472966, guid: 964f82ef1f120264f91e97059c36cc64, type: 3}
      propertyPath: m_LocalRotation.w
      value: 1
      objectReference: {fileID: 0}
    - target: {fileID: 472966, guid: 964f82ef1f120264f91e97059c36cc64, type: 3}
      propertyPath: m_RootOrder
      value: 0
      objectReference: {fileID: 0}
    m_RemovedComponents: []
  m_SourcePrefab: {fileID: 100100000, guid: 964f82ef1f120264f91e97059c36cc64, type: 3}
--- !u!4 &8365045273773838537 stripped
Transform:
  m_CorrespondingSourceObject: {fileID: 472966, guid: 964f82ef1f120264f91e97059c36cc64,
    type: 3}
  m_PrefabInstance: {fileID: 8365045273774171983}
  m_PrefabAsset: {fileID: 0}
--- !u!1001 &8365045274175484953
PrefabInstance:
  m_ObjectHideFlags: 0
  serializedVersion: 2
  m_Modification:
    m_TransformParent: {fileID: 8365045273974725825}
    m_Modifications:
    - target: {fileID: 495872, guid: 3fd2fe4dce6b88f4e9f2fc1dcd085960, type: 3}
      propertyPath: m_LocalPosition.x
      value: 0
      objectReference: {fileID: 0}
    - target: {fileID: 495872, guid: 3fd2fe4dce6b88f4e9f2fc1dcd085960, type: 3}
      propertyPath: m_LocalPosition.y
      value: 0
      objectReference: {fileID: 0}
    - target: {fileID: 495872, guid: 3fd2fe4dce6b88f4e9f2fc1dcd085960, type: 3}
      propertyPath: m_LocalPosition.z
      value: 0
      objectReference: {fileID: 0}
    - target: {fileID: 495872, guid: 3fd2fe4dce6b88f4e9f2fc1dcd085960, type: 3}
      propertyPath: m_LocalRotation.x
      value: 3.3306687e-15
      objectReference: {fileID: 0}
    - target: {fileID: 495872, guid: 3fd2fe4dce6b88f4e9f2fc1dcd085960, type: 3}
      propertyPath: m_LocalRotation.y
      value: -1
      objectReference: {fileID: 0}
    - target: {fileID: 495872, guid: 3fd2fe4dce6b88f4e9f2fc1dcd085960, type: 3}
      propertyPath: m_LocalRotation.z
      value: -0.0000000218557
      objectReference: {fileID: 0}
    - target: {fileID: 495872, guid: 3fd2fe4dce6b88f4e9f2fc1dcd085960, type: 3}
      propertyPath: m_LocalRotation.w
      value: 0.00000043213362
      objectReference: {fileID: 0}
    - target: {fileID: 495872, guid: 3fd2fe4dce6b88f4e9f2fc1dcd085960, type: 3}
      propertyPath: m_RootOrder
      value: 3
      objectReference: {fileID: 0}
    m_RemovedComponents: []
  m_SourcePrefab: {fileID: 100100000, guid: 3fd2fe4dce6b88f4e9f2fc1dcd085960, type: 3}
--- !u!4 &8365045274175710489 stripped
Transform:
  m_CorrespondingSourceObject: {fileID: 495872, guid: 3fd2fe4dce6b88f4e9f2fc1dcd085960,
    type: 3}
  m_PrefabInstance: {fileID: 8365045274175484953}
  m_PrefabAsset: {fileID: 0}
--- !u!1001 &8365045274575630725
PrefabInstance:
  m_ObjectHideFlags: 0
  serializedVersion: 2
  m_Modification:
    m_TransformParent: {fileID: 8365045273974725825}
    m_Modifications:
    - target: {fileID: 440944, guid: 72d5913900bb94349b98a1b5a5340e17, type: 3}
      propertyPath: m_LocalPosition.x
      value: 6
      objectReference: {fileID: 0}
    - target: {fileID: 440944, guid: 72d5913900bb94349b98a1b5a5340e17, type: 3}
      propertyPath: m_LocalPosition.y
      value: 0
      objectReference: {fileID: 0}
    - target: {fileID: 440944, guid: 72d5913900bb94349b98a1b5a5340e17, type: 3}
      propertyPath: m_LocalPosition.z
      value: 0
      objectReference: {fileID: 0}
    - target: {fileID: 440944, guid: 72d5913900bb94349b98a1b5a5340e17, type: 3}
      propertyPath: m_LocalRotation.x
      value: 0.000000021855694
      objectReference: {fileID: 0}
    - target: {fileID: 440944, guid: 72d5913900bb94349b98a1b5a5340e17, type: 3}
      propertyPath: m_LocalRotation.y
      value: 0
      objectReference: {fileID: 0}
    - target: {fileID: 440944, guid: 72d5913900bb94349b98a1b5a5340e17, type: 3}
      propertyPath: m_LocalRotation.z
      value: 0
      objectReference: {fileID: 0}
    - target: {fileID: 440944, guid: 72d5913900bb94349b98a1b5a5340e17, type: 3}
      propertyPath: m_LocalRotation.w
      value: 1
      objectReference: {fileID: 0}
    - target: {fileID: 440944, guid: 72d5913900bb94349b98a1b5a5340e17, type: 3}
      propertyPath: m_RootOrder
      value: 2
      objectReference: {fileID: 0}
    m_RemovedComponents: []
  m_SourcePrefab: {fileID: 100100000, guid: 72d5913900bb94349b98a1b5a5340e17, type: 3}
--- !u!4 &8365045274575719413 stripped
Transform:
  m_CorrespondingSourceObject: {fileID: 440944, guid: 72d5913900bb94349b98a1b5a5340e17,
    type: 3}
  m_PrefabInstance: {fileID: 8365045274575630725}
  m_PrefabAsset: {fileID: 0}
--- !u!1001 &8365045274621338161
PrefabInstance:
  m_ObjectHideFlags: 0
  serializedVersion: 2
  m_Modification:
    m_TransformParent: {fileID: 8365045273974725825}
    m_Modifications:
    - target: {fileID: 484628, guid: 1df136745ae1d834d9df67fa39473042, type: 3}
      propertyPath: m_LocalPosition.x
      value: 0
      objectReference: {fileID: 0}
    - target: {fileID: 484628, guid: 1df136745ae1d834d9df67fa39473042, type: 3}
      propertyPath: m_LocalPosition.y
      value: 0
      objectReference: {fileID: 0}
    - target: {fileID: 484628, guid: 1df136745ae1d834d9df67fa39473042, type: 3}
      propertyPath: m_LocalPosition.z
      value: 0
      objectReference: {fileID: 0}
    - target: {fileID: 484628, guid: 1df136745ae1d834d9df67fa39473042, type: 3}
      propertyPath: m_LocalRotation.x
      value: 0.000000021855694
      objectReference: {fileID: 0}
    - target: {fileID: 484628, guid: 1df136745ae1d834d9df67fa39473042, type: 3}
      propertyPath: m_LocalRotation.y
      value: 0
      objectReference: {fileID: 0}
    - target: {fileID: 484628, guid: 1df136745ae1d834d9df67fa39473042, type: 3}
      propertyPath: m_LocalRotation.z
      value: 0
      objectReference: {fileID: 0}
    - target: {fileID: 484628, guid: 1df136745ae1d834d9df67fa39473042, type: 3}
      propertyPath: m_LocalRotation.w
      value: 1
      objectReference: {fileID: 0}
    - target: {fileID: 484628, guid: 1df136745ae1d834d9df67fa39473042, type: 3}
      propertyPath: m_RootOrder
      value: 1
      objectReference: {fileID: 0}
    m_RemovedComponents: []
  m_SourcePrefab: {fileID: 100100000, guid: 1df136745ae1d834d9df67fa39473042, type: 3}
--- !u!4 &8365045274621118245 stripped
Transform:
  m_CorrespondingSourceObject: {fileID: 484628, guid: 1df136745ae1d834d9df67fa39473042,
    type: 3}
  m_PrefabInstance: {fileID: 8365045274621338161}
  m_PrefabAsset: {fileID: 0}
